RCA_test.vcd
$date
	Fri Apr 17 17:40:09 2015
$end
$version
	Icarus Verilog
$end
$timescale
	1s
$end
$scope module RCA4_tb $end
$scope module RCA01 $end
$var wire 1 ! V $end
$var wire 4 " a [3:0] $end
$var wire 4 # b [3:0] $end
$var wire 1 $ b0 $end
$var wire 1 % b1 $end
$var wire 1 & b2 $end
$var wire 1 ' b3 $end
$var wire 1 ( cin $end
$var wire 1 ) cout $end
$var wire 1 * op $end
$var wire 4 + sum [3:0] $end
$var wire 1 , c3 $end
$var wire 1 - c2 $end
$var wire 1 . c1 $end
$var wire 1 / c0 $end
$scope module FA01 $end
$var wire 1 0 a $end
$var wire 1 $ b $end
$var wire 1 * cin $end
$var wire 1 / cout $end
$var wire 1 1 sum $end
$var wire 1 2 w $end
$var wire 1 3 w1 $end
$var wire 1 4 w2 $end
$var wire 1 5 w3 $end
$upscope $end
$scope module FA02 $end
$var wire 1 6 a $end
$var wire 1 % b $end
$var wire 1 / cin $end
$var wire 1 . cout $end
$var wire 1 7 sum $end
$var wire 1 8 w $end
$var wire 1 9 w1 $end
$var wire 1 : w2 $end
$var wire 1 ; w3 $end
$upscope $end
$scope module FA03 $end
$var wire 1 < a $end
$var wire 1 & b $end
$var wire 1 . cin $end
$var wire 1 - cout $end
$var wire 1 = sum $end
$var wire 1 > w $end
$var wire 1 ? w1 $end
$var wire 1 @ w2 $end
$var wire 1 A w3 $end
$upscope $end
$scope module FA04 $end
$var wire 1 B a $end
$var wire 1 ' b $end
$var wire 1 - cin $end
$var wire 1 , cout $end
$var wire 1 C sum $end
$var wire 1 D w $end
$var wire 1 E w1 $end
$var wire 1 F w2 $end
$var wire 1 G w3 $end
$upscope $end
$upscope $end
$upscope $end
$enddefinitions $end
#0
$dumpvars
0G
0F
0E
0D
0C
0B
0A
0@
0?
0>
0=
0<
0;
0:
09
08
07
06
05
04
03
02
01
00
0/
0.
0-
0,
b0 +
0*
0)
0(
0'
0&
0%
0$
b0 #
b0 "
0!
$end
#50
1@
1A
1)
1.
1,
1:
1F
0!
1/
1-
13
1?
01
07
1=
b100 +
0C
1$
1&
02
18
0>
1D
10
16
1<
1B
b101 #
b1111 "
#100
0-
0:
0!
0)
08
19
0A
01
0/
1=
b100 +
0C
0,
0$
1%
0&
02
03
0>
0?
0@
0D
0F
00
0<
0B
1(
b10 #
b10 "
#150
17
1:
1;
1/
13
b110 +
01
1$
02
10
0(
b11 #
b11 "
#200
0.
0C
0!
0;
11
0/
07
b101 +
1=
0-
0%
12
03
08
09
0:
1>
0@
00
06
1<
1(
b1 #
b100 "
#250
1,
17
0@
0A
1G
0!
02
13
0.
0=
1-
0C
14
08
0;
0>
1?
1D
1/
10
1$
0%
1&
1'
0)
b11 +
11
15
0(
b10 #
b101 "
1*
#300
1)
0,
0/
0A
1C
0G
0!
05
11
17
0.
b1111 +
1=
0-
0$
02
03
04
18
0:
1>
0?
00
16
0<
b11 #
b10 "
#350
1:
1;
01
1/
17
1.
b1110 +
1=
12
15
08
19
0>
1$
1%
0&
b100 #
#400
0!
0.
1=
0-
0C
0:
12
18
09
0;
1>
0A
0D
0/
1$
0%
1&
0'
0)
b111 +
11
05
b101 #
0*
#450
1C
1!
1-
0=
1A
01
b1000 +
07
1.
02
08
19
0$
1%
b110 #
#550
1-
1:
0=
0!
1/
07
1.
0C
1,
1@
12
15
18
09
0A
1D
1G
1<
1$
0%
0&
1'
0)
b0 +
01
1(
b110 "
1*
#600
0G
1!
1=
0-
b100 +
0C
0>
0@
0D
1E
0F
0<
1B
0(
b1010 "
#650
1C
1F
1G
0!
b1000 +
0=
1-
1>
1@
1<
b1110 "
